%YAML 1.1
%TAG !u! tag:unity3d.com,2011:
--- !u!1 &172240
GameObject:
  m_ObjectHideFlags: 0
  m_PrefabParentObject: {fileID: 0}
  m_PrefabInternal: {fileID: 100100000}
  serializedVersion: 4
  m_Component:
  - 4: {fileID: 474432}
  - 114: {fileID: 11443754}
  m_Layer: 0
  m_Name: Principal
  m_TagString: Untagged
  m_Icon: {fileID: 0}
  m_NavMeshLayer: 0
  m_StaticEditorFlags: 0
  m_IsActive: 1
--- !u!4 &474432
Transform:
  m_ObjectHideFlags: 1
  m_PrefabParentObject: {fileID: 0}
  m_PrefabInternal: {fileID: 100100000}
  m_GameObject: {fileID: 172240}
  m_LocalRotation: {x: 0, y: 0, z: 0, w: 1}
  m_LocalPosition: {x: 0, y: 0, z: 0}
  m_LocalScale: {x: 1, y: 1, z: 1}
  m_Children: []
  m_Father: {fileID: 0}
  m_RootOrder: 0
--- !u!114 &11443754
MonoBehaviour:
  m_ObjectHideFlags: 1
  m_PrefabParentObject: {fileID: 0}
  m_PrefabInternal: {fileID: 100100000}
  m_GameObject: {fileID: 172240}
  m_Enabled: 1
  m_EditorHideFlags: 0
  m_Script: {fileID: 11500000, guid: 25fb867d2049d41f597aefdd6b19f598, type: 3}
  m_Name: 
  m_EditorClassIdentifier: 
  nameText: Mr. Williams
  nameColor: {r: 0.08088237, g: 0.08028765, b: 0.08028765, a: 1}
  soundEffect: {fileID: 0}
  profileSprite: {fileID: 21300000, guid: e10b56cc3ec07ec47a2ee60168e794d7, type: 3}
  portraits:
  - {fileID: 21300000, guid: e10b56cc3ec07ec47a2ee60168e794d7, type: 3}
  - {fileID: 21300000, guid: b4f45c5855bdb8b4cb30a4d4aa890fe4, type: 3}
  - {fileID: 21300000, guid: 55082417d356c484e908ac9d51ba1fc7, type: 3}
  - {fileID: 21300000, guid: f779f0c74537c9541b96275e69ebe170, type: 3}
  - {fileID: 21300000, guid: 0001e36576be8e24d8d0996917892037, type: 3}
  portraitsFace: 0
  setSayDialog: {fileID: 0}
  description: 
--- !u!1001 &100100000
Prefab:
  m_ObjectHideFlags: 1
  serializedVersion: 2
  m_Modification:
    m_TransformParent: {fileID: 0}
    m_Modifications: []
    m_RemovedComponents: []
  m_ParentPrefab: {fileID: 0}
  m_RootGameObject: {fileID: 172240}
  m_IsPrefabParent: 1
